\relax 
\ifx\hyper@anchor\@undefined
\global \let \oldcontentsline\contentsline
\gdef \contentsline#1#2#3#4{\oldcontentsline{#1}{#2}{#3}}
\global \let \oldnewlabel\newlabel
\gdef \newlabel#1#2{\newlabelxx{#1}#2}
\gdef \newlabelxx#1#2#3#4#5#6{\oldnewlabel{#1}{{#2}{#3}}}
\AtEndDocument{\let \contentsline\oldcontentsline
\let \newlabel\oldnewlabel}
\else
\global \let \hyper@last\relax 
\fi

\@writefile{lof}{\contentsline {figure}{\numberline {1}{\ignorespaces Lag using forked spidey}}{1}{figure.1}}
\newlabel{fig:frklag}{{1}{1}{Lag using forked spidey\relax }{figure.1}{}}
\@writefile{lof}{\contentsline {figure}{\numberline {2}{\ignorespaces Lag using non forked spidey}}{2}{figure.2}}
\newlabel{fig:quelag}{{2}{2}{Lag using non forked spidey\relax }{figure.2}{}}
\@writefile{lof}{\contentsline {figure}{\numberline {3}{\ignorespaces Throughput using forked spidey}}{3}{figure.3}}
\newlabel{fig:frkthr}{{3}{3}{Throughput using forked spidey\relax }{figure.3}{}}
\@writefile{lof}{\contentsline {figure}{\numberline {4}{\ignorespaces Throughput using non-forked spidey}}{3}{figure.4}}
\newlabel{fig:quethr}{{4}{3}{Throughput using non-forked spidey\relax }{figure.4}{}}
